DUBOIS1:18	Chg in depth greater than taped dist! Dist assumed 0.30m (not 0.16m) to match chg.
DUBOIS1:19	Chg in depth greater than taped dist! Dist assumed 0.20m (not 0.07m) to match chg.
DUBOIS1:731	Chg in depth greater than taped dist! Dist assumed 0.60m (not 0.38m) to match chg.
DUBOIS1:1061	Chg in depth greater than taped dist! Dist assumed 0.60m (not 0.24m) to match chg.
DUBOIS1:1125	Chg in depth greater than taped dist! Dist assumed 0.70m (not 0.42m) to match chg.
DUBOIS1:1130	Chg in depth greater than taped dist! Dist assumed 0.70m (not 0.12m) to match chg.
DUBOIS1:1131	Chg in depth greater than taped dist! Dist assumed 1.00m (not 0.41m) to match chg.
DUBOIS1:1245	Chg in depth greater than taped dist! Dist assumed 0.40m (not 0.06m) to match chg.
DUBOIS1:1247	Chg in depth greater than taped dist! Dist assumed 0.30m (not 0.08m) to match chg.
DUBOIS1:1264	Chg in depth greater than taped dist! Dist assumed 0.40m (not 0.24m) to match chg.
DUBOIS1:1265	Chg in depth greater than taped dist! Dist assumed 0.50m (not 0.33m) to match chg.
DUBOIS1:1340	Chg in depth greater than taped dist! Dist assumed 0.60m (not 0.21m) to match chg.
DUBOIS1:1360	Chg in depth greater than taped dist! Dist assumed 0.30m (not 0.17m) to match chg.
DUBOIS1:1504	Chg in depth greater than taped dist! Dist assumed 0.40m (not 0.24m) to match chg.
DUBOIS1:1505	Chg in depth greater than taped dist! Dist assumed 0.30m (not 0.08m) to match chg.
DUBOIS1:1507	Chg in depth greater than taped dist! Dist assumed 0.80m (not 0.21m) to match chg.
DUBOIS1:1508	Chg in depth greater than taped dist! Dist assumed 0.50m (not 0.26m) to match chg.
DUBOIS1:1560	Chg in depth greater than taped dist! Dist assumed 0.40m (not 0.16m) to match chg.
DUBOIS1:1574	Chg in depth greater than taped dist! Dist assumed 0.60m (not 0.33m) to match chg.
DUBOIS1:1582	Chg in depth greater than taped dist! Dist assumed 0.20m (not 0.07m) to match chg.
DUBOIS1:1586	Chg in depth greater than taped dist! Dist assumed 0.40m (not 0.24m) to match chg.
DUBOIS1:1612	Chg in depth greater than taped dist! Dist assumed 0.20m (not 0.07m) to match chg.
DUBOIS1:1615	Chg in depth greater than taped dist! Dist assumed 0.80m (not 0.42m) to match chg.
DUBOIS1:1617	Chg in depth greater than taped dist! Dist assumed 0.90m (not 0.21m) to match chg.
DUBOIS1:1618	Chg in depth greater than taped dist! Dist assumed 0.70m (not 0.33m) to match chg.
DUBOIS1:2539	Chg in depth greater than taped dist! Dist assumed 0.40m (not 0.17m) to match chg.
DUBOIS1:2543	Chg in depth greater than taped dist! Dist assumed 0.40m (not 0.08m) to match chg.
